[
    {
        "DocId": "710b962e-041c-11e1-9234-0123456789ab",
        "Name": "My Documents",
        "Path": "/mydocuments",
        "ParentIdPath": "",
        "Type": "Folder",
        "ParentId": null,
        "Roles": [
            "ALL"
        ],
        "CreatedAt": 1599186741,
        "UpdatedAt": 1599186741,
        "CreatedBy": "9b1deb4d-3b7d-4bad-9bdd-2b0d7b3dcb6d",
        "Published": true
    },
    {
        "DocId": "2c9a9a9a-b3b8-4e0f-bbed-540b61a02790",
        "Name": "A",
        "Path": "/mydocuments/a",
        "ParentIdPath": "710b962e-041c-11e1-9234-0123456789ab",
        "Type": "Folder",
        "ParentId": "710b962e-041c-11e1-9234-0123456789ab",
        "Roles": [
            "PUBLIC"
        ],
        "CreatedAt": 1599295635846,
        "UpdatedAt": 1599295635846,
        "CreatedBy": "9b1deb4d-3b7d-4bad-9bdd-2b0d7b3dcb6d",
        "Published": true
    },
    {
        "DocId": "caff5f8d-aa73-45e9-952d-0ccd1085e470",
        "Name": "A1",
        "Path": "/mydocuments/a/a1",
        "ParentIdPath": "710b962e-041c-11e1-9234-0123456789ab/2c9a9a9a-b3b8-4e0f-bbed-540b61a02790",
        "Type": "Folder",
        "ParentId": "2c9a9a9a-b3b8-4e0f-bbed-540b61a02790",
        "Roles": [
            "PUBLIC"
        ],
        "CreatedAt": 1599295681725,
        "UpdatedAt": 1599295681725,
        "CreatedBy": "9b1deb4d-3b7d-4bad-9bdd-2b0d7b3dcb6d",
        "Published": true
    },
    {
        "DocId": "21492397-38d7-42e3-a583-f42deb2a673b",
        "Name": "B",
        "Path": "/mydocuments/b",
        "ParentIdPath": "710b962e-041c-11e1-9234-0123456789ab",
        "Type": "Folder",
        "ParentId": "710b962e-041c-11e1-9234-0123456789ab",
        "Roles": [
            "SPECIAL",
            "PUBLIC"
        ],
        "CreatedAt": 1599295892971,
        "UpdatedAt": 1599295892971,
        "CreatedBy": "9b1deb4d-3b7d-4bad-9bdd-2b0d7b3dcb6d",
        "Published": true
    },
    {
        "DocId": "7fa934e1-27cb-4599-aff9-5b2bc7269fda",
        "Name": "Test file",
        "Path": "/mydocuments/b/testfile.docx",
        "ParentIdPath": "710b962e-041c-11e1-9234-0123456789ab/21492397-38d7-42e3-a583-f42deb2a673b",
        "Type": "File",
        "ParentId": "21492397-38d7-42e3-a583-f42deb2a673b",
        "Roles": [
            "SPECIAL",
            "PUBLIC"
        ],
        "CreatedAt": 1599306882053,
        "UpdatedAt": 1599306882053,
        "CreatedBy": "6ec0bd7f-11c0-43da-975e-2a8ad9ebae0b",
        "Published": true
    },
    {
        "DocId": "50d3e9b7-d99e-4cda-afe6-44db58b2c703",
        "Name": "second file",
        "Path": "/mydocuments/b/secondfile.xlsx",
        "ParentIdPath": "710b962e-041c-11e1-9234-0123456789ab/21492397-38d7-42e3-a583-f42deb2a673b",
        "Type": "File",
        "ParentId": "21492397-38d7-42e3-a583-f42deb2a673b",
        "Roles": [
            "SPECIAL",
            "PUBLIC"
        ],
        "CreatedAt": 1599307331570,
        "UpdatedAt": 1599307331570,
        "CreatedBy": "6ec0bd7f-11c0-43da-975e-2a8ad9ebae0b",
        "Published": true
    }
]